…
unik <- bind_rows(unik_france, unik_dptmt, unik_msf) %>%
  mutate(scale = as_factor(scale))
unik
```

```
## # A tibble: 30 x 3
## # Groups:   n [10]
##        n    nn scale         
##    <int> <int> <fct>         
##  1     1    85 France entière
##  2     2    22 France entière
##  3     3    18 France entière
##  4     4     9 France entière
##  5     5     5 France entière
##  6     6     7 France entière
##  7     7     2 France entière
##  8     8     5 France entière
##  9     9     2 France entière
## 10    10     4 France entière
## # … with 20 more rows
```
…
